^C:\USERS\JANSS\SOURCE\REPOS\C++TESTPROJEKTSERIALCOMM\C++TESTPROJEKTSERIALCOMM\DEBUG\C++TESTPROJEKTSERIALCOMM.OBJ|C:\USERS\JANSS\SOURCE\REPOS\C++TESTPROJEKTSERIALCOMM\C++TESTPROJEKTSERIALCOMM\DEBUG\LRMAT.OBJ|C:\USERS\JANSS\SOURCE\REPOS\C++TESTPROJEKTSERIALCOMM\C++TESTPROJEKTSERIALCOMM\DEBUG\SERIALPORT.OBJ|C:\USERS\JANSS\SOURCE\REPOS\C++TESTPROJEKTSERIALCOMM\C++TESTPROJEKTSERIALCOMM\DEBUG\STDAFX.OBJ
C:\PROGRAM FILES (X86)\WINDOWS KITS\10\LIB\10.0.17134.0\UM\X86\KERNEL32.LIB
C:\PROGRAM FILES (X86)\WINDOWS KITS\10\LIB\10.0.17134.0\UM\X86\USER32.LIB
C:\PROGRAM FILES (X86)\WINDOWS KITS\10\LIB\10.0.17134.0\UM\X86\GDI32.LIB
C:\PROGRAM FILES (X86)\WINDOWS KITS\10\LIB\10.0.17134.0\UM\X86\WINSPOOL.LIB
C:\PROGRAM FILES (X86)\WINDOWS KITS\10\LIB\10.0.17134.0\UM\X86\COMDLG32.LIB
C:\PROGRAM FILES (X86)\WINDOWS KITS\10\LIB\10.0.17134.0\UM\X86\ADVAPI32.LIB
C:\PROGRAM FILES (X86)\WINDOWS KITS\10\LIB\10.0.17134.0\UM\X86\SHELL32.LIB
C:\PROGRAM FILES (X86)\WINDOWS KITS\10\LIB\10.0.17134.0\UM\X86\OLE32.LIB
C:\PROGRAM FILES (X86)\WINDOWS KITS\10\LIB\10.0.17134.0\UM\X86\OLEAUT32.LIB
C:\PROGRAM FILES (X86)\WINDOWS KITS\10\LIB\10.0.17134.0\UM\X86\UUID.LIB
C:\PROGRAM FILES (X86)\WINDOWS KITS\10\LIB\10.0.17134.0\UM\X86\ODBC32.LIB
C:\PROGRAM FILES (X86)\WINDOWS KITS\10\LIB\10.0.17134.0\UM\X86\ODBCCP32.LIB
C:\USERS\JANSS\SOURCE\REPOS\C++TESTPROJEKTSERIALCOMM\C++TESTPROJEKTSERIALCOMM\DEBUG\C++TESTPROJEKTSERIALCOMM.OBJ
C:\USERS\JANSS\SOURCE\REPOS\C++TESTPROJEKTSERIALCOMM\C++TESTPROJEKTSERIALCOMM\DEBUG\LRMAT.OBJ
C:\USERS\JANSS\SOURCE\REPOS\C++TESTPROJEKTSERIALCOMM\C++TESTPROJEKTSERIALCOMM\DEBUG\SERIALPORT.OBJ
C:\USERS\JANSS\SOURCE\REPOS\C++TESTPROJEKTSERIALCOMM\C++TESTPROJEKTSERIALCOMM\DEBUG\STDAFX.OBJ
C:\WINDOWS\SYSTEM32\TZRES.DLL
C:\WINDOWS\GLOBALIZATION\SORTING\SORTDEFAULT.NLS
C:\PROGRAM FILES (X86)\MICROSOFT VISUAL STUDIO\2017\ENTERPRISE\VC\TOOLS\MSVC\14.16.27023\LIB\X86\MSVCPRTD.LIB
C:\PROGRAM FILES (X86)\MICROSOFT VISUAL STUDIO\2017\ENTERPRISE\VC\TOOLS\MSVC\14.16.27023\LIB\X86\MSVCRTD.LIB
C:\PROGRAM FILES (X86)\MICROSOFT VISUAL STUDIO\2017\ENTERPRISE\VC\TOOLS\MSVC\14.16.27023\LIB\X86\OLDNAMES.LIB
C:\PROGRAM FILES (X86)\MICROSOFT VISUAL STUDIO\2017\ENTERPRISE\VC\TOOLS\MSVC\14.16.27023\LIB\X86\VCRUNTIMED.LIB
C:\PROGRAM FILES (X86)\WINDOWS KITS\10\LIB\10.0.17134.0\UCRT\X86\UCRTD.LIB
^C:\USERS\JANSS\SOURCE\REPOS\SERIALCOMM\C++TESTPROJEKTSERIALCOMM\DEBUG\C++TESTPROJEKTSERIALCOMM.OBJ|C:\USERS\JANSS\SOURCE\REPOS\SERIALCOMM\C++TESTPROJEKTSERIALCOMM\DEBUG\LRMAT.OBJ|C:\USERS\JANSS\SOURCE\REPOS\SERIALCOMM\C++TESTPROJEKTSERIALCOMM\DEBUG\SERIALPORT.OBJ|C:\USERS\JANSS\SOURCE\REPOS\SERIALCOMM\C++TESTPROJEKTSERIALCOMM\DEBUG\STDAFX.OBJ
C:\PROGRAM FILES (X86)\WINDOWS KITS\10\LIB\10.0.17134.0\UM\X86\KERNEL32.LIB
C:\PROGRAM FILES (X86)\WINDOWS KITS\10\LIB\10.0.17134.0\UM\X86\USER32.LIB
C:\PROGRAM FILES (X86)\WINDOWS KITS\10\LIB\10.0.17134.0\UM\X86\GDI32.LIB
C:\PROGRAM FILES (X86)\WINDOWS KITS\10\LIB\10.0.17134.0\UM\X86\WINSPOOL.LIB
C:\PROGRAM FILES (X86)\WINDOWS KITS\10\LIB\10.0.17134.0\UM\X86\COMDLG32.LIB
C:\PROGRAM FILES (X86)\WINDOWS KITS\10\LIB\10.0.17134.0\UM\X86\ADVAPI32.LIB
C:\PROGRAM FILES (X86)\WINDOWS KITS\10\LIB\10.0.17134.0\UM\X86\SHELL32.LIB
C:\PROGRAM FILES (X86)\WINDOWS KITS\10\LIB\10.0.17134.0\UM\X86\OLE32.LIB
C:\PROGRAM FILES (X86)\WINDOWS KITS\10\LIB\10.0.17134.0\UM\X86\OLEAUT32.LIB
C:\PROGRAM FILES (X86)\WINDOWS KITS\10\LIB\10.0.17134.0\UM\X86\UUID.LIB
C:\PROGRAM FILES (X86)\WINDOWS KITS\10\LIB\10.0.17134.0\UM\X86\ODBC32.LIB
C:\PROGRAM FILES (X86)\WINDOWS KITS\10\LIB\10.0.17134.0\UM\X86\ODBCCP32.LIB
C:\USERS\JANSS\SOURCE\REPOS\SERIALCOMM\C++TESTPROJEKTSERIALCOMM\DEBUG\C++TESTPROJEKTSERIALCOMM.OBJ
C:\USERS\JANSS\SOURCE\REPOS\SERIALCOMM\C++TESTPROJEKTSERIALCOMM\DEBUG\LRMAT.OBJ
C:\USERS\JANSS\SOURCE\REPOS\SERIALCOMM\C++TESTPROJEKTSERIALCOMM\DEBUG\SERIALPORT.OBJ
C:\USERS\JANSS\SOURCE\REPOS\SERIALCOMM\C++TESTPROJEKTSERIALCOMM\DEBUG\STDAFX.OBJ
C:\WINDOWS\SYSTEM32\TZRES.DLL
C:\WINDOWS\GLOBALIZATION\SORTING\SORTDEFAULT.NLS
C:\PROGRAM FILES (X86)\MICROSOFT VISUAL STUDIO\2017\ENTERPRISE\VC\TOOLS\MSVC\14.16.27023\LIB\X86\MSVCPRTD.LIB
C:\PROGRAM FILES (X86)\MICROSOFT VISUAL STUDIO\2017\ENTERPRISE\VC\TOOLS\MSVC\14.16.27023\LIB\X86\MSVCRTD.LIB
C:\PROGRAM FILES (X86)\MICROSOFT VISUAL STUDIO\2017\ENTERPRISE\VC\TOOLS\MSVC\14.16.27023\LIB\X86\OLDNAMES.LIB
C:\PROGRAM FILES (X86)\MICROSOFT VISUAL STUDIO\2017\ENTERPRISE\VC\TOOLS\MSVC\14.16.27023\LIB\X86\VCRUNTIMED.LIB
C:\PROGRAM FILES (X86)\WINDOWS KITS\10\LIB\10.0.17134.0\UCRT\X86\UCRTD.LIB
C:\PROGRAM FILES (X86)\MICROSOFT VISUAL STUDIO\2017\ENTERPRISE\VC\TOOLS\MSVC\14.16.27023\BIN\HOSTX86\X86\MSPDBSRV.EXE
C:\PROGRAM FILES (X86)\MICROSOFT VISUAL STUDIO\2017\ENTERPRISE\VC\TOOLS\MSVC\14.16.27023\BIN\HOSTX86\X86\VCTIP.EXE
